Biostat 203B Homework 5
…
Engine-Specific Arguments:
  standardize = FALSE

Computational engine: glmnet 

param_grid_logit <- grid_regular(
  penalty(range = c(-2.8, -2.3)),
  mixture(range = c(0.2, 0.3)),
  levels = c(10, 10)
)
print(param_grid_logit)

# A tibble: 100 × 2
   penalty mixture
     <dbl>   <dbl>
 1 0.00158     0.2
 2 0.00180     0.2
 3 0.00205     0.2
 4 0.00233     0.2
 5 0.00264     0.2
 6 0.00300     0.2
 7 0.00341     0.2
 8 0.00388     0.2
 9 0.00441     0.2
10 0.00501     0.2
# ℹ 90 more rows
…
   user  system elapsed 
 28.296   0.642  28.955 

logit_fit |>
  # aggregate metrics from K folds
  collect_metrics() |>
  print(width = Inf) |>
  filter(.metric == "roc_auc") |>
  ggplot(mapping = aes(x = penalty, y = mean, color = factor(mixture))) +
  geom_point() +
  labs(x = "Penalty", y = "CV AUC") +
  scale_x_log10()

# A tibble: 200 × 8
   penalty mixture .metric  .estimator  mean     n std_err
     <dbl>   <dbl> <chr>    <chr>      <dbl> <int>   <dbl>
 1 0.00158     0.2 accuracy binary     0.582     5 0.00258
 2 0.00158     0.2 roc_auc  binary     0.609     5 0.00242
 3 0.00180     0.2 accuracy binary     0.582     5 0.00262
 4 0.00180     0.2 roc_auc  binary     0.609     5 0.00242
 5 0.00205     0.2 accuracy binary     0.582     5 0.00258
 6 0.00205     0.2 roc_auc  binary     0.609     5 0.00242
 7 0.00233     0.2 accuracy binary     0.582     5 0.00258
 8 0.00233     0.2 roc_auc  binary     0.609     5 0.00243
 9 0.00264     0.2 accuracy binary     0.582     5 0.00271
10 0.00264     0.2 roc_auc  binary     0.609     5 0.00244
   .config               
   <chr>                 
 1 Preprocessor1_Model001
 2 Preprocessor1_Model001
 3 Preprocessor1_Model002
 4 Preprocessor1_Model002
 5 Preprocessor1_Model003
 6 Preprocessor1_Model003
 7 Preprocessor1_Model004
 8 Preprocessor1_Model004
 9 Preprocessor1_Model005
10 Preprocessor1_Model005
# ℹ 190 more rows
…
Engine-Specific Arguments:
  early_stopping_rounds = 50

Computational engine: xgboost 

param_grid_gb <- grid_regular(
  tree_depth(range = c(2L, 4L)),
  learn_rate(range = c(-1.3, -1.0), trans = log10_trans()),
  levels = c(3, 10)
  )
print(param_grid_gb)

# A tibble: 30 × 2
   tree_depth learn_rate
        <int>      <dbl>
 1          2     0.0501
 2          3     0.0501
 3          4     0.0501
 4          2     0.0541
 5          3     0.0541
 6          4     0.0541
 7          2     0.0584
 8          3     0.0584
 9          4     0.0584
10          2     0.0631
# ℹ 20 more rows
…
gb_fit |>
  collect_metrics() |>
  print(width = Inf) |>
  filter(.metric == "roc_auc") |>
  ggplot(mapping = aes(x = learn_rate, y = mean, color = factor(tree_depth))) +
  geom_point() +
  labs(x = "Learning Rate", y = "CV AUC") +
  scale_x_log10()

# A tibble: 60 × 8
   tree_depth learn_rate .metric  .estimator  mean     n std_err
        <int>      <dbl> <chr>    <chr>      <dbl> <int>   <dbl>
 1          2     0.0501 accuracy binary     0.607     5 0.00163
 2          2     0.0501 roc_auc  binary     0.647     5 0.00213
 3          3     0.0501 accuracy binary     0.609     5 0.00195
 4          3     0.0501 roc_auc  binary     0.650     5 0.00224
 5          4     0.0501 accuracy binary     0.605     5 0.00284
 6          4     0.0501 roc_auc  binary     0.649     5 0.00241
 7          2     0.0541 accuracy binary     0.608     5 0.00191
 8          2     0.0541 roc_auc  binary     0.647     5 0.00217
 9          3     0.0541 accuracy binary     0.608     5 0.00211
10          3     0.0541 roc_auc  binary     0.650     5 0.00245
   .config              
   <chr>                
 1 Preprocessor1_Model01
 2 Preprocessor1_Model01
 3 Preprocessor1_Model02
 4 Preprocessor1_Model02
 5 Preprocessor1_Model03
 6 Preprocessor1_Model03
 7 Preprocessor1_Model04
 8 Preprocessor1_Model04
 9 Preprocessor1_Model05
10 Preprocessor1_Model05
# ℹ 50 more rows
…
Engine-Specific Arguments:
  importance = impurity

Computational engine: ranger 

param_grid_rf <- grid_regular(
  trees(range = c(300L, 400L)), 
  mtry(range = c(7L, 11L)),
  levels = c(5, 5)
  )
print(param_grid_rf)

# A tibble: 25 × 2
   trees  mtry
   <int> <int>
 1   300     7
 2   325     7
 3   350     7
 4   375     7
 5   400     7
 6   300     8
 7   325     8
 8   350     8
 9   375     8
10   400     8
# ℹ 15 more rows
…
rf_fit |>
  collect_metrics() |>
  print(width = Inf) |>
  filter(.metric == "roc_auc") |>
  ggplot(mapping = aes(x = trees, y = mean, color = factor(mtry))) +
  geom_point() + 
  # geom_line() + 
  labs(x = "Num. of Trees", y = "CV AUC")

# A tibble: 50 × 8
    mtry trees .metric  .estimator  mean     n  std_err .config              
   <int> <int> <chr>    <chr>      <dbl> <int>    <dbl> <chr>                
 1     7   300 accuracy binary     0.606     5 0.000735 Preprocessor1_Model01
 2     7   300 roc_auc  binary     0.646     5 0.00170  Preprocessor1_Model01
 3     7   325 accuracy binary     0.604     5 0.00133  Preprocessor1_Model02
 4     7   325 roc_auc  binary     0.646     5 0.00193  Preprocessor1_Model02
 5     7   350 accuracy binary     0.603     5 0.00140  Preprocessor1_Model03
 6     7   350 roc_auc  binary     0.646     5 0.00203  Preprocessor1_Model03
 7     7   375 accuracy binary     0.604     5 0.00145  Preprocessor1_Model04
 8     7   375 roc_auc  binary     0.646     5 0.00141  Preprocessor1_Model04
 9     7   400 accuracy binary     0.604     5 0.00115  Preprocessor1_Model05
10     7   400 roc_auc  binary     0.647     5 0.00148  Preprocessor1_Model05
# ℹ 40 more rows
…
